…
``` r
winners %>%
  filter(!grepl('Wheelchair', Category)) -> WinnersTidy

WinnersTidy
```

    ## # A tibble: 85 × 5
    ##    Category  Year Athlete              Nationality    Time    
    ##    <chr>    <dbl> <chr>                <chr>          <time>  
    ##  1 Men       1981 Dick Beardsley (Tie) United States  02:11:48
    ##  2 Men       1981 Inge Simonsen (Tie)  Norway         02:11:48
    ##  3 Men       1982 Hugh Jones           United Kingdom 02:09:24
    ##  4 Men       1983 Mike Gratton         United Kingdom 02:09:43
    ##  5 Men       1984 Charlie Spedding     United Kingdom 02:09:57
    ##  6 Men       1985 Steve Jones          United Kingdom 02:08:16
    ##  7 Men       1986 Toshihiko Seko       Japan          02:10:02
    ##  8 Men       1987 Hiromi Taniguchi     Japan          02:09:50
    ##  9 Men       1988 Henrik Jørgensen     Denmark        02:10:20
    ## 10 Men       1989 Douglas Wakiihuri    Kenya          02:09:03
    ## # ℹ 75 more rows
…
